<?xml version="1.0" encoding="UTF-8"?>
<model ref="r:6accf4c4-a27d-447d-97c3-6975aa9c1f97(NameChange)">
  <persistence version="9" />
  <languages>
    <devkit ref="9b903ecd-ba57-441e-8d7c-d3f1fbfcc047(com.moraad)" />
  </languages>
  <imports>
    <import index="qiur" ref="r:8720e696-0fac-4176-a4dc-80083fb5401b(MethodConfiguration)" />
    <import index="qxlf" ref="r:291748f2-3cc9-439c-b64a-e488f1504975(Catalog)" />
  </imports>
  <registry>
    <language id="77390b0e-ab69-4de7-a036-d557f81b479e" name="de.itemis.ysec.catalog.technologies">
      <concept id="3517148917927860064" name="de.itemis.ysec.catalog.technologies.structure.ITaggedWithTechnologies" flags="ng" index="1jWzGI">
        <child id="3260991312724860420" name="technologies" index="1BQc1m" />
      </concept>
      <concept id="7473959397023084950" name="de.itemis.ysec.catalog.technologies.structure.TechnologyRef" flags="ng" index="1EY2vJ" />
    </language>
    <language id="d8c07454-d390-4e04-8826-d25e86f59134" name="de.itemis.mps.xdiagram">
      <concept id="69042634962010496" name="de.itemis.mps.xdiagram.structure.XDiagramLayoutEntry" flags="ng" index="zGsxD">
        <property id="69042634962010502" name="layoutString" index="zGsxJ" />
        <property id="1174236820146112338" name="elementId" index="2MHvPS" />
      </concept>
      <concept id="69042634962010499" name="de.itemis.mps.xdiagram.structure.XDiagramLayoutStorage" flags="ng" index="zGsxE">
        <property id="2498010886192733022" name="rootId" index="1ueiNO" />
        <child id="69042634962010500" name="layoutEntries" index="zGsxH" />
      </concept>
      <concept id="280164805027066272" name="de.itemis.mps.xdiagram.structure.XDiagram" flags="ng" index="3xPMB7">
        <child id="69042634962010512" name="layoutStorages" index="zGsxT" />
      </concept>
    </language>
    <language id="8aedd025-5f31-4a1e-81a1-4c5345407211" name="com.moraad.suggestions">
      <concept id="1744555010771063086" name="com.moraad.suggestions.structure.AssThreatScenarioAssistantSuggestionFactory" flags="ng" index="k5Jq$" />
      <concept id="1744555010771063084" name="com.moraad.suggestions.structure.AssAdditionThreatScenarioAssistantSuggestion" flags="ng" index="k5JqA" />
      <concept id="1744555010776338337" name="com.moraad.suggestions.structure.RelationAssistantSelector" flags="ng" index="khAwF" />
      <concept id="1744555010776336880" name="com.moraad.suggestions.structure.DamageScenarioAssistantSelector" flags="ng" index="khATU" />
      <concept id="1744555010776327868" name="com.moraad.suggestions.structure.ThreatScenarioAssistantSelector" flags="ng" index="khC4Q" />
      <concept id="114192864337941166" name="com.moraad.suggestions.structure.AssAdditionDamageScenarioAssistantSuggestion" flags="ng" index="raIdw" />
      <concept id="1920997147008949188" name="com.moraad.suggestions.structure.RiskAssistantSelector" flags="ng" index="CEhHY" />
      <concept id="1920997147009089272" name="com.moraad.suggestions.structure.AssRiskSuggestionFactory" flags="ng" index="CENT2" />
      <concept id="8675225129845988701" name="com.moraad.suggestions.structure.AssDsThreatenedByTsSuggestionFactory" flags="ng" index="2FpSCn" />
      <concept id="8675225129768242352" name="com.moraad.suggestions.structure.AssistantChunk" flags="ng" index="2Q15JU">
        <child id="1744555010776060220" name="assistantSelector" index="kmFqQ" />
        <child id="8675225129778034533" name="factories" index="2Q$E0J" />
      </concept>
      <concept id="8675225129768254214" name="com.moraad.suggestions.structure.AssSuggestionQueryResult" flags="ng" index="2Q16Lc">
        <reference id="8675225129798856842" name="consultedNode" index="2ClQv0" />
        <child id="8675225129775903758" name="suggestions" index="2QGid4" />
      </concept>
      <concept id="8675225129768254215" name="com.moraad.suggestions.structure.AssSuggestion" flags="ng" index="2Q16Ld">
        <reference id="8675225129798855691" name="suggestedEntity" index="2ClRH1" />
        <reference id="8675225129815039074" name="consultedNode" index="2Dj$GC" />
      </concept>
      <concept id="8675225129768254213" name="com.moraad.suggestions.structure.AssSuggestionFactory" flags="ng" index="2Q16Lf">
        <child id="2567848404456432646" name="groups" index="3N3N22" />
      </concept>
      <concept id="446196523655023050" name="com.moraad.suggestions.structure.AssDamageScenarioSuggestionFactory" flags="ng" index="3aivMl" />
      <concept id="446196523655766478" name="com.moraad.suggestions.structure.AssResultGroup" flags="ng" index="3aHhih">
        <property id="6842080042029996409" name="identifier" index="133MFP" />
        <property id="446196523655779532" name="heading" index="3aHm6j" />
        <child id="446196523655778962" name="results" index="3aHmvd" />
      </concept>
    </language>
    <language id="2283d35c-b541-4c39-bf04-8310ba3f92ff" name="com.moraad.reports">
      <concept id="5638758366197687768" name="com.moraad.reports.structure.RiskTreatmentTableReportItem" flags="ng" index="21ek43" />
      <concept id="5662992976716575613" name="com.moraad.reports.structure.ThreatScenariosAndAttackPathsReportItem" flags="ng" index="28bWPA">
        <property id="5844418852561495228" name="limit" index="1CBqX7" />
      </concept>
      <concept id="2050517468709281410" name="com.moraad.reports.structure.AssetsAndDamageScenariosTableReportItem" flags="ng" index="ckFx4" />
      <concept id="6986877318773217091" name="com.moraad.reports.structure.TextReportItem" flags="ng" index="yg4y$">
        <property id="6986877318773333397" name="text" index="ygo9M" />
      </concept>
      <concept id="6986877318773201239" name="com.moraad.reports.structure.ComponentDiagramReportItem" flags="ng" index="ygSqK">
        <reference id="1019912726748740255" name="diagram" index="2HTkYB" />
      </concept>
      <concept id="6986877318773203685" name="com.moraad.reports.structure.RiskTableReportItem" flags="ng" index="ygVO2" />
      <concept id="6986877318773203683" name="com.moraad.reports.structure.ControlsTableReportItem" flags="ng" index="ygVO4" />
      <concept id="6986877318773203681" name="com.moraad.reports.structure.ThreatTableReportItem" flags="ng" index="ygVO6" />
      <concept id="6986877318773203653" name="com.moraad.reports.structure.AssumptionTableReportItem" flags="ng" index="ygVOy" />
      <concept id="6986877318772884603" name="com.moraad.reports.structure.RiskDistributionChartReportItem" flags="ng" index="yhPIs">
        <property id="6552748594463309586" name="showPreview" index="2DBfkM" />
      </concept>
      <concept id="6986877318772702512" name="com.moraad.reports.structure.ProjectInfoReportItem" flags="ng" index="ym6bn">
        <reference id="635552504747772140" name="projectInfo" index="39i2te" />
      </concept>
      <concept id="6986877318772759009" name="com.moraad.reports.structure.EmptyReportItem" flags="ng" index="ymko6" />
      <concept id="6986877318770896277" name="com.moraad.reports.structure.ResultReportChunk" flags="ng" index="ypf9M">
        <child id="6986877318770902011" name="items" index="yp9Ks" />
      </concept>
      <concept id="1488669593885577694" name="com.moraad.reports.structure.CommentReportItem" flags="ng" index="2JOk35">
        <property id="1488669593885577696" name="text" index="2JOk3V" />
      </concept>
      <concept id="5952104409253523121" name="com.moraad.reports.structure.TableOfContentsReportItem" flags="ng" index="3x3r7t" />
      <concept id="2129184553233376960" name="com.moraad.reports.structure.FuncAssignmentSmartTableReportItem" flags="ng" index="3xdgjh" />
      <concept id="2129184553237592657" name="com.moraad.reports.structure.DataTableReportItem" flags="ng" index="3xttx0" />
      <concept id="2129184553237592667" name="com.moraad.reports.structure.DataFlowsTableReportItem" flags="ng" index="3xttxa" />
      <concept id="2129184553237592647" name="com.moraad.reports.structure.ComponentsTableReportItem" flags="ng" index="3xttxm" />
      <concept id="2129184553237592677" name="com.moraad.reports.structure.ChannelsTableReportItem" flags="ng" index="3xttxO" />
      <concept id="2129184553237375048" name="com.moraad.reports.structure.FunctionTableReportItem" flags="ng" index="3xuwDp" />
      <concept id="2129184553228409378" name="com.moraad.reports.structure.FuncAssignmentSimpleTableReportItem" flags="ng" index="3xSvwN" />
      <concept id="2195216638865431028" name="com.moraad.reports.structure.DamageAndThreatScenariosReportItem" flags="ng" index="3yVM0i" />
      <concept id="8588388912954219383" name="com.moraad.reports.structure.DamageScenarioTableReportItem" flags="ng" index="3UIwP1" />
    </language>
    <language id="edd58c45-9999-4ad9-8f8a-e0d26da1cbc9" name="de.itemis.ysec.commons">
      <concept id="7050052209586915341" name="de.itemis.ysec.commons.structure.IChunkWithDefaultContent" flags="ng" index="2xH1$G">
        <child id="7050052209586915342" name="defaultContent" index="2xH1$J" />
      </concept>
      <concept id="3384350556523616640" name="de.itemis.ysec.commons.structure.ISecABasicElementRef" flags="ng" index="122Z_A">
        <reference id="3384350556523616658" name="target" index="122Z_O" />
      </concept>
      <concept id="2596867816763073964" name="de.itemis.ysec.commons.structure.IDescribed" flags="ng" index="1ALOwD">
        <child id="7057631560081871838" name="description" index="2JHqPs" />
      </concept>
      <concept id="2596867816763073961" name="de.itemis.ysec.commons.structure.ITitled" flags="ng" index="1ALOwG">
        <property id="1729603031951941283" name="title" index="DVXpC" />
      </concept>
    </language>
    <language id="d66daea8-e7a8-4305-aeaa-7ca535d07bd3" name="com.moraad.projectinfo">
      <concept id="9003278715588766811" name="com.moraad.projectinfo.structure.EmptyProjectInfoContent" flags="ng" index="$sJSh" />
      <concept id="9003278715588766803" name="com.moraad.projectinfo.structure.ProjectInfoListEntry" flags="ng" index="$sJSp">
        <child id="459042386150007873" name="freetextValue" index="X3RNv" />
      </concept>
      <concept id="9003278715588766804" name="com.moraad.projectinfo.structure.ProjectInfoList" flags="ng" index="$sJSu">
        <child id="9003278715588979763" name="listEntries" index="$tzTT" />
      </concept>
      <concept id="4299407153799527256" name="com.moraad.projectinfo.structure.ProjectInfoTable" flags="ng" index="39leHu" />
      <concept id="7449413747451491361" name="com.moraad.projectinfo.structure.ProjectInfoChunk" flags="ng" index="3eC5pO">
        <property id="4299407153801033970" name="doNotShowEdit" index="38JYzO" />
        <child id="9003278715588858344" name="projectInfoContent" index="$s4ey" />
      </concept>
    </language>
    <language id="048a18dc-8dce-4fe2-8e99-0a16464f630c" name="de.itemis.mps.editor.freetext">
      <concept id="8926592809623411165" name="de.itemis.mps.editor.freetext.structure.BasicParagraph" flags="ng" index="3VMn$0">
        <child id="8926592809623411166" name="runs" index="3VMn$3" />
      </concept>
      <concept id="8926592809623411162" name="de.itemis.mps.editor.freetext.structure.WordRun" flags="ng" index="3VMn$7" />
      <concept id="8926592809623411159" name="de.itemis.mps.editor.freetext.structure.Freetext" flags="ng" index="3VMn$a">
        <child id="8926592809623411163" name="paragraphs" index="3VMn$6" />
      </concept>
      <concept id="8926592809623411170" name="de.itemis.mps.editor.freetext.structure.IRun" flags="ng" index="3VMn$Z">
        <property id="8926592809623411171" name="text" index="3VMn$Y" />
      </concept>
    </language>
    <language id="a97beefa-b088-4bdb-8ed8-6b4e554b6264" name="com.moraad.sequences">
      <concept id="8142618915233841375" name="com.moraad.sequences.structure.SequencesChunk" flags="ng" index="1YSUgs" />
    </language>
    <language id="174fc1bc-8a89-4d07-8636-8bc5dc4757e4" name="de.itemis.vcs_text.tables">
      <concept id="312446707538163884" name="de.itemis.vcs_text.tables.structure.SimpleTable" flags="ng" index="2mR0c">
        <child id="312446707538413839" name="header" index="2hO6J" />
        <child id="312446707538164015" name="rows" index="2mR6f" />
      </concept>
      <concept id="312446707538163885" name="de.itemis.vcs_text.tables.structure.SimpleRow" flags="ng" index="2mR0d">
        <child id="312446707538164018" name="cells" index="2mR6i" />
      </concept>
      <concept id="312446707538163886" name="de.itemis.vcs_text.tables.structure.SimpleCell" flags="ng" index="2mR0e">
        <child id="312446707538454950" name="entry" index="2hY46" />
      </concept>
      <concept id="312446707540923383" name="de.itemis.vcs_text.tables.structure.EmptyCell" flags="ng" index="2opHn" />
      <concept id="312446707540702486" name="de.itemis.vcs_text.tables.structure.HeaderNameCellEntry" flags="ng" index="2ozQQ" />
      <concept id="4299407153800462969" name="de.itemis.vcs_text.tables.structure.FreetextCellEntry" flags="ng" index="38D_9Z">
        <child id="4299407153800463780" name="value" index="38D_my" />
      </concept>
    </language>
    <language id="24e88a55-f0b5-4dc5-9077-49730e920865" name="de.itemis.ysec.checklist">
      <concept id="6217398072109638567" name="de.itemis.ysec.checklist.structure.ChecklistItem" flags="ng" index="2H0S4X">
        <child id="4258253476795566208" name="rationale" index="3GS99T" />
      </concept>
      <concept id="6217398072109638633" name="de.itemis.ysec.checklist.structure.ChecklistItemGroup" flags="ng" index="2H0S5N">
        <child id="6217398072109638643" name="items" index="2H0S5D" />
      </concept>
      <concept id="6217398072109318275" name="de.itemis.ysec.checklist.structure.Checklist" flags="ng" index="2H3I8p">
        <property id="117579728711752679" name="__ItemsTextReadOnly" index="3F1M74" />
        <child id="6217398072109638590" name="groups" index="2H0S4$" />
      </concept>
      <concept id="4258253476795643009" name="de.itemis.ysec.checklist.structure.ChecklistItemHead" flags="ng" index="3GSqTS" />
    </language>
    <language id="2bca1aa3-c113-4542-8ac2-2a6a30636981" name="com.moraad.core">
      <concept id="4718052244458560179" name="com.moraad.core.structure.SecurityAnalysisChunk" flags="ng" index="2vPz$R" />
      <concept id="7050052209585848527" name="com.moraad.core.structure.ThreatContentSelector" flags="ng" index="2xx57I" />
      <concept id="7050052209585848529" name="com.moraad.core.structure.ControlContentSelector" flags="ng" index="2xx57K" />
      <concept id="7050052209585848531" name="com.moraad.core.structure.AssumptionContentSelector" flags="ng" index="2xx57M" />
      <concept id="7050052209585848533" name="com.moraad.core.structure.RiskContentSelector" flags="ng" index="2xx57O" />
      <concept id="7050052209585848535" name="com.moraad.core.structure.ScenarioContentSelector" flags="ng" index="2xx57Q" />
      <concept id="8071121944254209035" name="com.moraad.core.structure.DamageScenarioContentSelector" flags="ng" index="U8VUI" />
      <concept id="330802076191738031" name="com.moraad.core.structure.RiskTreatmentEvaluation" flags="ng" index="1mMvoj">
        <property id="330802076205393171" name="lastUpdatedTimestamp" index="1nI1IJ" />
      </concept>
      <concept id="330802076190598253" name="com.moraad.core.structure.RiskTreatmentChunk" flags="ng" index="1mQ_Fh">
        <property id="330802076194478696" name="indexToShow" index="1m7Ujk" />
        <child id="330802076191738029" name="riskTreatments" index="1mMvoh" />
      </concept>
      <concept id="7050052209577206632" name="com.moraad.core.structure.ThreatScenarioContentSelector" flags="ng" index="3u6799" />
    </language>
    <language id="ceab5195-25ea-4f22-9b92-103b95ca8c0c" name="jetbrains.mps.lang.core">
      <concept id="1133920641626" name="jetbrains.mps.lang.core.structure.BaseConcept" flags="ng" index="2VYdi">
        <property id="1193676396447" name="virtualPackage" index="3GE5qa" />
      </concept>
      <concept id="1169194658468" name="jetbrains.mps.lang.core.structure.INamedConcept" flags="ng" index="TrEIO">
        <property id="1169194664001" name="name" index="TrG5h" />
      </concept>
    </language>
    <language id="c1497963-7ffd-4da0-9a4d-74675c5ab7e2" name="com.moraad.components">
      <concept id="4903305818773966639" name="com.moraad.components.structure.TOEChunk" flags="ng" index="2lbcm6" />
      <concept id="4903305818773971546" name="com.moraad.components.structure.TOEComponent" flags="ng" index="2lbezN">
        <child id="1808727333797819112" name="subComponents" index="1b_L45" />
        <child id="1808727333797819114" name="storedData" index="1b_L47" />
      </concept>
      <concept id="4903305818773998197" name="com.moraad.components.structure.ITOEElementContainer" flags="ng" index="2lbk3s">
        <child id="4903305818773998200" name="elements" index="2lbk3h" />
      </concept>
      <concept id="3911760519739995188" name="com.moraad.components.structure.SystemDiagram" flags="ng" index="2ndE_3">
        <property id="1514418932059619330" name="hierarchyLevels" index="2zzwJW" />
        <child id="3260991312725364852" name="newDataChunk" index="1BS0SA" />
        <child id="3260991312725608311" name="newDataFlowsChunk" index="1BT5$_" />
        <child id="7472593337833908268" name="rootComponent" index="3Vepgw" />
      </concept>
      <concept id="7050052209593327461" name="com.moraad.components.structure.TOEFunctionContentSelector" flags="ng" index="2x4$T4" />
      <concept id="7050052209593327464" name="com.moraad.components.structure.TOEDataContentSelector" flags="ng" index="2x4$T9" />
      <concept id="7050052209593327466" name="com.moraad.components.structure.TOEComponentContentSelector" flags="ng" index="2x4$Tb" />
      <concept id="7050052209593327468" name="com.moraad.components.structure.TOEChannelContentSelector" flags="ng" index="2x4$Td" />
      <concept id="5188113475688114801" name="com.moraad.components.structure.FunctionAssignmentChunk" flags="ng" index="2zckJ6" />
      <concept id="5188113475686638955" name="com.moraad.components.structure.TOEData" flags="ng" index="2zhWjs" />
      <concept id="3043868224835494634" name="com.moraad.components.structure.TOEChannel" flags="ng" index="3mlHNJ">
        <child id="6453420821188241049" name="endPoints" index="38xWUi" />
        <child id="7233123248602290786" name="dataFlows" index="3XVyOB" />
      </concept>
      <concept id="4250072277178649485" name="com.moraad.components.structure.TOEChunkRef" flags="ng" index="3$0O6U">
        <reference id="4250072277178649488" name="target" index="3$0O6B" />
      </concept>
      <concept id="4250072277178649596" name="com.moraad.components.structure.TOEComponentRef" flags="ng" index="3$0O7b" />
      <concept id="9034427618896207423" name="com.moraad.components.structure.TOEDataFlow" flags="ng" index="3Kau8M">
        <reference id="549470471296403036" name="targetRef" index="27$5CB" />
        <reference id="549470471296403025" name="sourceRef" index="27$5CE" />
      </concept>
      <concept id="9034427618907086470" name="com.moraad.components.structure.TOEDataRef" flags="ng" index="3KzYab" />
    </language>
  </registry>
  <node concept="1mQ_Fh" id="4ZIixnyU4op">
    <property role="TrG5h" value="Risk Treatment" />
    <property role="1m7Ujk" value="0" />
    <node concept="1mMvoj" id="4ZIixnyU4oq" role="1mMvoh">
      <property role="1nI1IJ" value="1532013827941" />
    </node>
  </node>
  <node concept="2lbcm6" id="4ZIixnyU4or">
    <property role="3GE5qa" value="Item Definition" />
    <property role="TrG5h" value="Functions" />
    <node concept="2x4$T4" id="1hO7Wi9cJsq" role="2xH1$J" />
  </node>
  <node concept="2lbcm6" id="4ZIixnyU4ou">
    <property role="TrG5h" value="Components" />
    <property role="3GE5qa" value="Item Definition" />
    <node concept="2lbezN" id="4ZIixnyU4ov" role="2lbk3h">
      <property role="TrG5h" value="SYS" />
      <property role="DVXpC" value="System" />
      <node concept="3VMn$a" id="4ZIixnyU4ow" role="2JHqPs">
        <node concept="3VMn$0" id="4ZIixnyU4ox" role="3VMn$6">
          <node concept="3VMn$7" id="4ZIixnyU4oy" role="3VMn$3">
            <property role="3VMn$Y" value="System" />
          </node>
          <node concept="3VMn$7" id="4ZIixnyU4oz" role="3VMn$3">
            <property role="3VMn$Y" value="component" />
          </node>
        </node>
      </node>
      <node concept="2lbezN" id="4ZIixnyU6oa" role="1b_L45">
        <property role="TrG5h" value="Cmp.1" />
        <property role="DVXpC" value="On-Board Module" />
        <node concept="3VMn$a" id="4ZIixnyU6ob" role="2JHqPs" />
        <node concept="3KzYab" id="4ZIixnyU6tH" role="1b_L47">
          <ref role="122Z_O" node="4ZIixnyU6tF" resolve="D.2" />
        </node>
      </node>
      <node concept="2lbezN" id="4ZIixnyU6oh" role="1b_L45">
        <property role="TrG5h" value="Cmp.2" />
        <property role="DVXpC" value="Gateway" />
        <node concept="3VMn$a" id="4ZIixnyU6oi" role="2JHqPs" />
      </node>
      <node concept="2lbezN" id="4ZIixnyU6oA" role="1b_L45">
        <property role="TrG5h" value="Cmp.3" />
        <property role="DVXpC" value="Telematics Module" />
        <node concept="3VMn$a" id="4ZIixnyU6oB" role="2JHqPs" />
      </node>
      <node concept="2lbezN" id="4ZIixnyU6oN" role="1b_L45">
        <property role="TrG5h" value="Cmp.4" />
        <property role="DVXpC" value="Cloud Server" />
        <node concept="3VMn$a" id="4ZIixnyU6oO" role="2JHqPs" />
        <node concept="1EY2vJ" id="4ZIixnyU6uN" role="1BQc1m">
          <ref role="122Z_O" to="qxlf:4NAzM1S$I_U" resolve="CAN" />
        </node>
      </node>
      <node concept="2lbezN" id="4ZIixnyU6p3" role="1b_L45">
        <property role="TrG5h" value="Cmp.5" />
        <property role="DVXpC" value="Firmware Development Environment" />
        <node concept="3VMn$a" id="4ZIixnyU6p4" role="2JHqPs" />
        <node concept="3KzYab" id="4ZIixnyU6po" role="1b_L47">
          <ref role="122Z_O" node="4ZIixnyU6pm" resolve="D.1" />
        </node>
        <node concept="1EY2vJ" id="4ZIixnyU6uW" role="1BQc1m">
          <ref role="122Z_O" to="qxlf:4NAzM1S$I_U" resolve="CAN" />
        </node>
      </node>
    </node>
    <node concept="2x4$Tb" id="1hO7Wi9cJss" role="2xH1$J" />
  </node>
  <node concept="2lbcm6" id="4ZIixnyU4o_">
    <property role="3GE5qa" value="Item Definition" />
    <property role="TrG5h" value="Data" />
    <node concept="2zhWjs" id="4ZIixnyU6pm" role="2lbk3h">
      <property role="TrG5h" value="D.1" />
      <property role="DVXpC" value="New Firmware" />
      <node concept="3VMn$a" id="4ZIixnyU6pn" role="2JHqPs" />
    </node>
    <node concept="2zhWjs" id="4ZIixnyU6tF" role="2lbk3h">
      <property role="TrG5h" value="D.2" />
      <property role="DVXpC" value="Firmware Request" />
      <node concept="3VMn$a" id="4ZIixnyU6tG" role="2JHqPs" />
    </node>
    <node concept="2x4$T9" id="1hO7Wi9cJsu" role="2xH1$J" />
  </node>
  <node concept="2lbcm6" id="4ZIixnyU4oC">
    <property role="TrG5h" value="Channels" />
    <property role="3GE5qa" value="Item Definition" />
    <node concept="3mlHNJ" id="4ZIixnyU6p_" role="2lbk3h">
      <property role="TrG5h" value="Ch.1" />
      <node concept="3VMn$a" id="4ZIixnyU6pA" role="2JHqPs" />
      <node concept="3$0O7b" id="4ZIixnyU6pB" role="38xWUi">
        <ref role="122Z_O" node="4ZIixnyU6p3" resolve="Cmp.5" />
      </node>
      <node concept="3$0O7b" id="4ZIixnyU6pC" role="38xWUi">
        <ref role="122Z_O" node="4ZIixnyU6oN" resolve="Cmp.4" />
      </node>
      <node concept="3Kau8M" id="4ZIixnyU6pD" role="3XVyOB">
        <property role="TrG5h" value="DF.1" />
        <ref role="27$5CE" node="4ZIixnyU6pB" />
        <ref role="27$5CB" node="4ZIixnyU6pC" />
        <node concept="3VMn$a" id="4ZIixnyU6pE" role="2JHqPs" />
      </node>
      <node concept="3Kau8M" id="4ZIixnyU6pX" role="3XVyOB">
        <property role="TrG5h" value="DF.2" />
        <ref role="27$5CE" node="4ZIixnyU6pC" />
        <ref role="27$5CB" node="4ZIixnyU6pB" />
        <node concept="3VMn$a" id="4ZIixnyU6pY" role="2JHqPs" />
      </node>
    </node>
    <node concept="3mlHNJ" id="4ZIixnyU6qg" role="2lbk3h">
      <property role="TrG5h" value="Ch.2" />
      <node concept="3VMn$a" id="4ZIixnyU6qh" role="2JHqPs" />
      <node concept="3$0O7b" id="4ZIixnyU6qi" role="38xWUi">
        <ref role="122Z_O" node="4ZIixnyU6oN" resolve="Cmp.4" />
      </node>
      <node concept="3$0O7b" id="4ZIixnyU6qj" role="38xWUi">
        <ref role="122Z_O" node="4ZIixnyU6oA" resolve="Cmp.3" />
      </node>
      <node concept="3Kau8M" id="4ZIixnyU6qk" role="3XVyOB">
        <property role="TrG5h" value="DF.3" />
        <ref role="27$5CE" node="4ZIixnyU6qi" />
        <ref role="27$5CB" node="4ZIixnyU6qj" />
        <node concept="3VMn$a" id="4ZIixnyU6ql" role="2JHqPs" />
      </node>
      <node concept="3Kau8M" id="4ZIixnyU6tc" role="3XVyOB">
        <property role="TrG5h" value="DF.8" />
        <ref role="27$5CE" node="4ZIixnyU6qj" />
        <ref role="27$5CB" node="4ZIixnyU6qi" />
        <node concept="3VMn$a" id="4ZIixnyU6td" role="2JHqPs" />
      </node>
    </node>
    <node concept="3mlHNJ" id="4ZIixnyU6qO" role="2lbk3h">
      <property role="TrG5h" value="Ch.3" />
      <node concept="3VMn$a" id="4ZIixnyU6qP" role="2JHqPs" />
      <node concept="3$0O7b" id="4ZIixnyU6qQ" role="38xWUi">
        <ref role="122Z_O" node="4ZIixnyU6oA" resolve="Cmp.3" />
      </node>
      <node concept="3$0O7b" id="4ZIixnyU6qR" role="38xWUi">
        <ref role="122Z_O" node="4ZIixnyU6oh" resolve="Cmp.2" />
      </node>
      <node concept="3Kau8M" id="4ZIixnyU6qS" role="3XVyOB">
        <property role="TrG5h" value="DF.4" />
        <ref role="27$5CE" node="4ZIixnyU6qQ" />
        <ref role="27$5CB" node="4ZIixnyU6qR" />
        <node concept="3VMn$a" id="4ZIixnyU6qT" role="2JHqPs" />
      </node>
      <node concept="3Kau8M" id="4ZIixnyU6sJ" role="3XVyOB">
        <property role="TrG5h" value="DF.7" />
        <ref role="27$5CE" node="4ZIixnyU6qR" />
        <ref role="27$5CB" node="4ZIixnyU6qQ" />
        <node concept="3VMn$a" id="4ZIixnyU6sK" role="2JHqPs" />
      </node>
    </node>
    <node concept="3mlHNJ" id="4ZIixnyU6rw" role="2lbk3h">
      <property role="TrG5h" value="Ch.4" />
      <node concept="3VMn$a" id="4ZIixnyU6rx" role="2JHqPs" />
      <node concept="3$0O7b" id="4ZIixnyU6ry" role="38xWUi">
        <ref role="122Z_O" node="4ZIixnyU6oh" resolve="Cmp.2" />
      </node>
      <node concept="3$0O7b" id="4ZIixnyU6rz" role="38xWUi">
        <ref role="122Z_O" node="4ZIixnyU6oa" resolve="Cmp.1" />
      </node>
      <node concept="3Kau8M" id="4ZIixnyU6r$" role="3XVyOB">
        <property role="TrG5h" value="DF.5" />
        <ref role="27$5CE" node="4ZIixnyU6ry" />
        <ref role="27$5CB" node="4ZIixnyU6rz" />
        <node concept="3VMn$a" id="4ZIixnyU6r_" role="2JHqPs" />
      </node>
      <node concept="3Kau8M" id="4ZIixnyU6sk" role="3XVyOB">
        <property role="TrG5h" value="DF.6" />
        <ref role="27$5CE" node="4ZIixnyU6rz" />
        <ref role="27$5CB" node="4ZIixnyU6ry" />
        <node concept="3VMn$a" id="4ZIixnyU6sl" role="2JHqPs" />
      </node>
    </node>
    <node concept="2x4$Td" id="1hO7Wi9cJsw" role="2xH1$J" />
  </node>
  <node concept="2ndE_3" id="4ZIixnyU4oF">
    <property role="2zzwJW" value="2" />
    <property role="3GE5qa" value="Item Definition" />
    <property role="TrG5h" value="System Diagram" />
    <node concept="3$0O7b" id="4ZIixnyU4oG" role="3Vepgw">
      <ref role="122Z_O" node="4ZIixnyU4ov" resolve="SYS" />
    </node>
    <node concept="3$0O6U" id="4ZIixnyU4oH" role="1BT5$_">
      <ref role="3$0O6B" node="4ZIixnyU4oC" resolve="Channels" />
    </node>
    <node concept="3$0O6U" id="4ZIixnyU4oI" role="1BS0SA">
      <ref role="3$0O6B" node="4ZIixnyU4o_" resolve="Data" />
    </node>
    <node concept="zGsxE" id="4ZIixnyU4oJ" role="zGsxT">
      <property role="1ueiNO" value="root.7055464025021850431" />
      <node concept="zGsxD" id="4ZIixnyU4oK" role="zGsxH">
        <property role="2MHvPS" value="root.7055464025021850431" />
        <property role="zGsxJ" value="0.0;0.0;0.0;0.0" />
      </node>
    </node>
    <node concept="zGsxE" id="4ZIixnyU6o3" role="zGsxT">
      <property role="1ueiNO" value="root.5759622431315084831" />
      <node concept="zGsxD" id="4ZIixnyU6o4" role="zGsxH">
        <property role="2MHvPS" value="root.5759622431315084831" />
        <property role="zGsxJ" value="0.0;0.0;0.0;0.0" />
      </node>
      <node concept="zGsxD" id="4ZIixnyU6oe" role="zGsxH">
        <property role="2MHvPS" value="5759622431315093002" />
        <property role="zGsxJ" value="540.0;124.125;240.0;75.875" />
      </node>
      <node concept="zGsxD" id="4ZIixnyU6on" role="zGsxH">
        <property role="2MHvPS" value="5759622431315093009" />
        <property role="zGsxJ" value="300.0;105.75;130.0;94.25" />
      </node>
      <node concept="zGsxD" id="4ZIixnyU6oI" role="zGsxH">
        <property role="2MHvPS" value="5759622431315093030" />
        <property role="zGsxJ" value="70.0;105.75;150.0;94.25" />
      </node>
      <node concept="zGsxD" id="4ZIixnyU6oX" role="zGsxH">
        <property role="2MHvPS" value="5759622431315093043" />
        <property role="zGsxJ" value="65.0;-40.0;160.0;51.0" />
      </node>
      <node concept="zGsxD" id="4ZIixnyU6pf" role="zGsxH">
        <property role="2MHvPS" value="5759622431315093059" />
        <property role="zGsxJ" value="300.0;-40.0;250.0;59.0" />
      </node>
      <node concept="zGsxD" id="4ZIixnyU6pt" role="zGsxH">
        <property role="2MHvPS" value="5759622431315093059_5759622431315093080" />
        <property role="zGsxJ" value="5.0;34.0;92.0;18.0" />
      </node>
      <node concept="zGsxD" id="4ZIixnyU6pM" role="zGsxH">
        <property role="2MHvPS" value="5759622431315093043.5759622431315093097.in" />
        <property role="zGsxJ" value="160.0;10.0;12.0;12.0" />
      </node>
      <node concept="zGsxD" id="4ZIixnyU6pN" role="zGsxH">
        <property role="2MHvPS" value="5759622431315093059.5759622431315093097.out" />
        <property role="zGsxJ" value="-12.0;10.0;12.0;12.0" />
      </node>
      <node concept="zGsxD" id="4ZIixnyU6q3" role="zGsxH">
        <property role="2MHvPS" value="5759622431315093059.5759622431315093117.in" />
        <property role="zGsxJ" value="-12.0;30.0;12.0;12.0" />
      </node>
      <node concept="zGsxD" id="4ZIixnyU6q4" role="zGsxH">
        <property role="2MHvPS" value="5759622431315093043.5759622431315093117.out" />
        <property role="zGsxJ" value="160.0;30.0;12.0;12.0" />
      </node>
      <node concept="zGsxD" id="4ZIixnyU6q_" role="zGsxH">
        <property role="2MHvPS" value="5759622431315093030.5759622431315093140.in" />
        <property role="zGsxJ" value="50.0;-12.0;12.0;12.0" />
      </node>
      <node concept="zGsxD" id="4ZIixnyU6qA" role="zGsxH">
        <property role="2MHvPS" value="5759622431315093043.5759622431315093140.out" />
        <property role="zGsxJ" value="55.0;51.0;12.0;12.0" />
      </node>
      <node concept="zGsxD" id="4ZIixnyU6rf" role="zGsxH">
        <property role="2MHvPS" value="5759622431315093009.5759622431315093176.in" />
        <property role="zGsxJ" value="-12.0;14.25;12.0;12.0" />
      </node>
      <node concept="zGsxD" id="4ZIixnyU6rg" role="zGsxH">
        <property role="2MHvPS" value="5759622431315093030.5759622431315093176.out" />
        <property role="zGsxJ" value="150.0;14.25;12.0;12.0" />
      </node>
      <node concept="zGsxD" id="4ZIixnyU6s1" role="zGsxH">
        <property role="2MHvPS" value="5759622431315093002.5759622431315093220.in" />
        <property role="zGsxJ" value="-12.0;5.875;12.0;12.0" />
      </node>
      <node concept="zGsxD" id="4ZIixnyU6s2" role="zGsxH">
        <property role="2MHvPS" value="5759622431315093009.5759622431315093220.out" />
        <property role="zGsxJ" value="130.0;24.25;12.0;12.0" />
      </node>
      <node concept="zGsxD" id="4ZIixnyU6sq" role="zGsxH">
        <property role="2MHvPS" value="5759622431315093009.5759622431315093268.in" />
        <property role="zGsxJ" value="130.0;44.25;12.0;12.0" />
      </node>
      <node concept="zGsxD" id="4ZIixnyU6sr" role="zGsxH">
        <property role="2MHvPS" value="5759622431315093002.5759622431315093268.out" />
        <property role="zGsxJ" value="-12.0;25.875;12.0;12.0" />
      </node>
      <node concept="zGsxD" id="4ZIixnyU6sP" role="zGsxH">
        <property role="2MHvPS" value="5759622431315093030.5759622431315093295.in" />
        <property role="zGsxJ" value="150.0;34.25;12.0;12.0" />
      </node>
      <node concept="zGsxD" id="4ZIixnyU6sQ" role="zGsxH">
        <property role="2MHvPS" value="5759622431315093009.5759622431315093295.out" />
        <property role="zGsxJ" value="-12.0;34.25;12.0;12.0" />
      </node>
      <node concept="zGsxD" id="4ZIixnyU6ti" role="zGsxH">
        <property role="2MHvPS" value="5759622431315093030.5759622431315093324.out" />
        <property role="zGsxJ" value="100.0;-12.0;12.0;12.0" />
      </node>
      <node concept="zGsxD" id="4ZIixnyU6tj" role="zGsxH">
        <property role="2MHvPS" value="5759622431315093043.5759622431315093324.in" />
        <property role="zGsxJ" value="105.0;51.0;12.0;12.0" />
      </node>
      <node concept="zGsxD" id="4ZIixnyU6tO" role="zGsxH">
        <property role="2MHvPS" value="5759622431315093002_5759622431315093357" />
        <property role="zGsxJ" value="8.5;37.625;131.5;18.0" />
      </node>
    </node>
    <node concept="zGsxE" id="4ZIixnyU6or" role="zGsxT">
      <property role="1ueiNO" value="root.5759622431315093009" />
      <node concept="zGsxD" id="4ZIixnyU6os" role="zGsxH">
        <property role="2MHvPS" value="root.5759622431315093009" />
        <property role="zGsxJ" value="0.0;0.0;0.0;0.0" />
      </node>
    </node>
    <node concept="zGsxE" id="4ZIixnyU6ud" role="zGsxT">
      <property role="1ueiNO" value="root.5759622431315093030" />
      <node concept="zGsxD" id="4ZIixnyU6ue" role="zGsxH">
        <property role="2MHvPS" value="root.5759622431315093030" />
        <property role="zGsxJ" value="0.0;0.0;0.0;0.0" />
      </node>
    </node>
  </node>
  <node concept="2zckJ6" id="4ZIixnyU4oL">
    <property role="3GE5qa" value="Item Definition" />
    <property role="TrG5h" value="Function Assignment" />
  </node>
  <node concept="2vPz$R" id="4ZIixnyU4oM">
    <property role="TrG5h" value="Assumptions" />
    <property role="3GE5qa" value="Security Analysis" />
    <node concept="2xx57M" id="1hO7Wi9cJsj" role="2xH1$J" />
  </node>
  <node concept="2vPz$R" id="4ZIixnyU4oP">
    <property role="TrG5h" value="Threat Scenarios" />
    <property role="3GE5qa" value="Security Analysis" />
    <node concept="3u6799" id="1hO7Wi9cJsp" role="2xH1$J" />
  </node>
  <node concept="2vPz$R" id="4ZIixnyU4oS">
    <property role="3GE5qa" value="Security Analysis" />
    <property role="TrG5h" value="Damage Scenarios" />
    <node concept="U8VUI" id="1hO7Wi9cJsl" role="2xH1$J" />
  </node>
  <node concept="2vPz$R" id="4ZIixnyU4oV">
    <property role="TrG5h" value="Attack Steps" />
    <property role="3GE5qa" value="Security Analysis" />
    <node concept="2xx57I" id="1hO7Wi9cJso" role="2xH1$J" />
  </node>
  <node concept="2vPz$R" id="4ZIixnyU4oY">
    <property role="TrG5h" value="Controls" />
    <property role="3GE5qa" value="Security Analysis" />
    <node concept="2xx57K" id="1hO7Wi9cJsk" role="2xH1$J" />
  </node>
  <node concept="2vPz$R" id="4ZIixnyU4p1">
    <property role="3GE5qa" value="Security Analysis" />
    <property role="TrG5h" value="Control Scenarios" />
    <node concept="2xx57Q" id="1hO7Wi9cJsn" role="2xH1$J" />
  </node>
  <node concept="1YSUgs" id="4ZIixnyU4p4">
    <property role="3GE5qa" value="Item Definition" />
    <property role="TrG5h" value="Sequences" />
  </node>
  <node concept="ypf9M" id="4ZIixnyU4p6">
    <property role="TrG5h" value="Result Report" />
    <property role="3GE5qa" value="Reports" />
    <node concept="3x3r7t" id="4ZIixnyU4p7" role="yp9Ks" />
    <node concept="ym6bn" id="4ZIixnyU4p8" role="yp9Ks">
      <ref role="39i2te" node="4ZIixnyU4ng" resolve="Project Info: NameChange [Off-Board_Infotainment]" />
    </node>
    <node concept="yhPIs" id="4ZIixnyU4p9" role="yp9Ks">
      <property role="2DBfkM" value="false" />
    </node>
    <node concept="ygSqK" id="4ZIixnyU4pa" role="yp9Ks">
      <ref role="2HTkYB" node="4ZIixnyU4oF" resolve="System Diagram" />
    </node>
    <node concept="yg4y$" id="4ZIixnyU4pb" role="yp9Ks">
      <property role="ygo9M" value="All system elements are listed at the end of this document." />
    </node>
    <node concept="ymko6" id="4ZIixnyU4pc" role="yp9Ks" />
    <node concept="2JOk35" id="4ZIixnyU4pd" role="yp9Ks">
      <property role="2JOk3V" value=" ISO/SAE 21434 tables" />
    </node>
    <node concept="ckFx4" id="4ZIixnyU4pe" role="yp9Ks" />
    <node concept="3UIwP1" id="4ZIixnyU4pf" role="yp9Ks" />
    <node concept="3yVM0i" id="4ZIixnyU4pg" role="yp9Ks" />
    <node concept="28bWPA" id="4ZIixnyU4ph" role="yp9Ks">
      <property role="1CBqX7" value="2147483647" />
    </node>
    <node concept="ymko6" id="4ZIixnyU4pi" role="yp9Ks" />
    <node concept="2JOk35" id="4ZIixnyU4pj" role="yp9Ks">
      <property role="2JOk3V" value=" listing of security elements" />
    </node>
    <node concept="ygVOy" id="4ZIixnyU4pk" role="yp9Ks" />
    <node concept="ygVO6" id="4ZIixnyU4pl" role="yp9Ks" />
    <node concept="ygVO4" id="4ZIixnyU4pm" role="yp9Ks" />
    <node concept="ygVO2" id="4ZIixnyU4pn" role="yp9Ks" />
    <node concept="21ek43" id="4ZIixnyU4po" role="yp9Ks" />
    <node concept="ymko6" id="4ZIixnyU4pp" role="yp9Ks" />
    <node concept="2JOk35" id="4ZIixnyU4pq" role="yp9Ks">
      <property role="2JOk3V" value=" listing of system elements" />
    </node>
    <node concept="3xSvwN" id="4ZIixnyU4pr" role="yp9Ks" />
    <node concept="3xdgjh" id="4ZIixnyU4ps" role="yp9Ks" />
    <node concept="3xuwDp" id="4ZIixnyU4pt" role="yp9Ks" />
    <node concept="3xttx0" id="4ZIixnyU4pu" role="yp9Ks" />
    <node concept="3xttxm" id="4ZIixnyU4pv" role="yp9Ks" />
    <node concept="3xttxO" id="4ZIixnyU4pw" role="yp9Ks" />
    <node concept="3xttxa" id="4ZIixnyU4px" role="yp9Ks" />
  </node>
  <node concept="2Q15JU" id="4ZIixnyU4py">
    <property role="3GE5qa" value="Assistants" />
    <node concept="khATU" id="4ZIixnyU4pz" role="kmFqQ" />
    <node concept="3aivMl" id="4ZIixnyU4p$" role="2Q$E0J">
      <node concept="3aHhih" id="4ZIixnyU4rT" role="3N3N22">
        <property role="3aHm6j" value="Components" />
        <property role="133MFP" value="Component" />
        <node concept="2Q16Lc" id="4ZIixnyU4rU" role="3aHmvd">
          <ref role="2ClQv0" node="4ZIixnyU4ov" resolve="SYS" />
          <node concept="raIdw" id="4ZIixnyU4rV" role="2QGid4">
            <ref role="2ClRH1" to="qiur:4CQftq3lQja" resolve="C" />
            <ref role="2Dj$GC" node="4ZIixnyU4ov" resolve="SYS" />
          </node>
          <node concept="raIdw" id="4ZIixnyU4rW" role="2QGid4">
            <ref role="2ClRH1" to="qiur:4CQftq3lQjc" resolve="I" />
            <ref role="2Dj$GC" node="4ZIixnyU4ov" resolve="SYS" />
          </node>
          <node concept="raIdw" id="4ZIixnyU4rX" role="2QGid4">
            <ref role="2ClRH1" to="qiur:4CQftq3lQjb" resolve="Av" />
            <ref role="2Dj$GC" node="4ZIixnyU4ov" resolve="SYS" />
          </node>
        </node>
      </node>
    </node>
  </node>
  <node concept="2Q15JU" id="4ZIixnyU4p_">
    <property role="3GE5qa" value="Assistants" />
    <node concept="khC4Q" id="4ZIixnyU4pA" role="kmFqQ" />
    <node concept="k5Jq$" id="4ZIixnyU4pB" role="2Q$E0J">
      <node concept="3aHhih" id="4ZIixnyU4s3" role="3N3N22">
        <property role="3aHm6j" value="Components" />
        <property role="133MFP" value="Component" />
        <node concept="2Q16Lc" id="4ZIixnyU4s4" role="3aHmvd">
          <ref role="2ClQv0" node="4ZIixnyU4ov" resolve="SYS" />
          <node concept="k5JqA" id="4ZIixnyU4s8" role="2QGid4">
            <ref role="2ClRH1" to="qxlf:4CQftq3lQmG" resolve="TC.2" />
            <ref role="2Dj$GC" node="4ZIixnyU4ov" resolve="SYS" />
          </node>
          <node concept="k5JqA" id="4ZIixnyU4s7" role="2QGid4">
            <ref role="2ClRH1" to="qxlf:4CQftq3lQpp" resolve="TC.4" />
            <ref role="2Dj$GC" node="4ZIixnyU4ov" resolve="SYS" />
          </node>
          <node concept="k5JqA" id="4ZIixnyU4s5" role="2QGid4">
            <ref role="2ClRH1" to="qxlf:4CQftq3lQqK" resolve="TC.5" />
            <ref role="2Dj$GC" node="4ZIixnyU4ov" resolve="SYS" />
          </node>
          <node concept="k5JqA" id="4ZIixnyU4s6" role="2QGid4">
            <ref role="2ClRH1" to="qxlf:4CQftq3lQsu" resolve="TC.6" />
            <ref role="2Dj$GC" node="4ZIixnyU4ov" resolve="SYS" />
          </node>
        </node>
      </node>
    </node>
  </node>
  <node concept="2Q15JU" id="4ZIixnyU4pC">
    <property role="3GE5qa" value="Assistants" />
    <node concept="khAwF" id="4ZIixnyU4pD" role="kmFqQ" />
    <node concept="2FpSCn" id="4ZIixnyU4pE" role="2Q$E0J" />
  </node>
  <node concept="2vPz$R" id="4ZIixnyU4pF">
    <property role="TrG5h" value="Risks" />
    <property role="3GE5qa" value="Security Analysis" />
    <node concept="2xx57O" id="1hO7Wi9cJsm" role="2xH1$J" />
  </node>
  <node concept="2H3I8p" id="4ZIixnyU4pI">
    <property role="TrG5h" value="UN R155 Threats" />
    <property role="3F1M74" value="true" />
    <property role="3GE5qa" value="Checklists" />
    <node concept="2H0S5N" id="4ZIixnyU4pJ" role="2H0S4$">
      <property role="TrG5h" value="Threats regarding back-end servers related to vehicles in the field" />
      <node concept="3GSqTS" id="4ZIixnyU4pK" role="2H0S5D">
        <property role="TrG5h" value="1 Back-end servers used as a means to attack a vehicle or extract data" />
      </node>
      <node concept="2H0S4X" id="4ZIixnyU4pL" role="2H0S5D">
        <property role="TrG5h" value="Abuse of privileges by staff (insider attack)" />
        <node concept="3VMn$a" id="4ZIixnyU4pM" role="3GS99T" />
      </node>
      <node concept="2H0S4X" id="4ZIixnyU4pN" role="2H0S5D">
        <property role="TrG5h" value="Unauthorised internet access to the server (enabled for example by backdoors, unpatched system software vulnerabilities, SQL attacks or other means)" />
        <node concept="3VMn$a" id="4ZIixnyU4pO" role="3GS99T" />
      </node>
      <node concept="2H0S4X" id="4ZIixnyU4pP" role="2H0S5D">
        <property role="TrG5h" value="Unauthorised physical access to the server (conducted by for example USB sticks or other media connecting to the server)" />
        <node concept="3VMn$a" id="4ZIixnyU4pQ" role="3GS99T" />
      </node>
      <node concept="3GSqTS" id="4ZIixnyU4pR" role="2H0S5D">
        <property role="TrG5h" value="2 Services from back-end server being disrupted, affecting the operation of a vehicle " />
      </node>
      <node concept="2H0S4X" id="4ZIixnyU4pS" role="2H0S5D">
        <property role="TrG5h" value="Attack on back-end server stops it functioning, for example it prevents it from interacting with vehicles and providing services they rely on" />
        <node concept="3VMn$a" id="4ZIixnyU4pT" role="3GS99T" />
      </node>
      <node concept="3GSqTS" id="4ZIixnyU4pU" role="2H0S5D">
        <property role="TrG5h" value="3 Vehicle related data on back-end servers being lost or compromised" />
      </node>
      <node concept="2H0S4X" id="4ZIixnyU4pV" role="2H0S5D">
        <property role="TrG5h" value="Abuse of privileges by staff (insider attack)" />
        <node concept="3VMn$a" id="4bWuMoKP5os" role="3GS99T" />
      </node>
      <node concept="2H0S4X" id="4ZIixnyU4pW" role="2H0S5D">
        <property role="TrG5h" value="Loss of information in the cloud. Sensitive data may be lost due to attacks or accidents when data is stored by third-party cloud service providers" />
        <node concept="3VMn$a" id="4ZIixnyU4pX" role="3GS99T" />
      </node>
      <node concept="2H0S4X" id="4ZIixnyU4pY" role="2H0S5D">
        <property role="TrG5h" value="Unauthorised internet access to the server (enabled for example by backdoors, unpatched system software vulnerabilities, SQL attacks or other means)" />
        <node concept="3VMn$a" id="4ZIixnyU4pZ" role="3GS99T" />
      </node>
      <node concept="2H0S4X" id="4ZIixnyU4q0" role="2H0S5D">
        <property role="TrG5h" value="Unauthorised physical access to the server (conducted for example by USB sticks or other media connecting to the server)" />
        <node concept="3VMn$a" id="4ZIixnyU4q1" role="3GS99T" />
      </node>
      <node concept="2H0S4X" id="4ZIixnyU4q2" role="2H0S5D">
        <property role="TrG5h" value="Information breach by unintended sharing of data (e.g. admin errors, storing data in servers in garages)" />
        <node concept="3VMn$a" id="4ZIixnyU4q3" role="3GS99T" />
      </node>
    </node>
    <node concept="2H0S5N" id="4ZIixnyU4q4" role="2H0S4$">
      <property role="TrG5h" value="Threats to vehicle regarding their communication channel" />
      <node concept="3GSqTS" id="4ZIixnyU4q5" role="2H0S5D">
        <property role="TrG5h" value="4 Spoofing of messages or data received by the vehicle" />
      </node>
      <node concept="2H0S4X" id="4ZIixnyU4q6" role="2H0S5D">
        <property role="TrG5h" value="Spoofing of messages by impersonation (e.g. 802.11p V2X during platooning, GNSS messages, etc.)" />
        <node concept="3VMn$a" id="4ZIixnyU4q7" role="3GS99T" />
      </node>
      <node concept="2H0S4X" id="4ZIixnyU4q8" role="2H0S5D">
        <property role="TrG5h" value="Sybil attack (in order to spoof other vehicles as if there are many vehicles on the road)" />
        <node concept="3VMn$a" id="4bWuMoKP5ot" role="3GS99T" />
      </node>
      <node concept="3GSqTS" id="4ZIixnyU4q9" role="2H0S5D">
        <property role="TrG5h" value="5 Communication channels used to conduct unauthorized manipulation, deletion or other amendments to vehicle held code/data" />
      </node>
      <node concept="2H0S4X" id="4ZIixnyU4qa" role="2H0S5D">
        <property role="TrG5h" value="Communications channels permit code injection, for example tampered software binary might be injected into the communication stream" />
        <node concept="3VMn$a" id="4ZIixnyU4qb" role="3GS99T" />
      </node>
      <node concept="2H0S4X" id="4ZIixnyU4qc" role="2H0S5D">
        <property role="TrG5h" value="Communications channels permit manipulate of vehicle held data/code" />
        <node concept="3VMn$a" id="4bWuMoKP5ou" role="3GS99T" />
      </node>
      <node concept="2H0S4X" id="4ZIixnyU4qd" role="2H0S5D">
        <property role="TrG5h" value="Communication channels permit overwrite of vehicle held data/code" />
        <node concept="3VMn$a" id="4bWuMoKP5ov" role="3GS99T" />
      </node>
      <node concept="2H0S4X" id="4ZIixnyU4qe" role="2H0S5D">
        <property role="TrG5h" value="Communication channels permit erasure of vehicle held data/code" />
        <node concept="3VMn$a" id="4bWuMoKP5ow" role="3GS99T" />
      </node>
      <node concept="2H0S4X" id="4ZIixnyU4qf" role="2H0S5D">
        <property role="TrG5h" value="Communication channels permit introduction of data/code to the vehicle" />
        <node concept="3VMn$a" id="4bWuMoKP5ox" role="3GS99T" />
      </node>
      <node concept="3GSqTS" id="4ZIixnyU4qg" role="2H0S5D">
        <property role="TrG5h" value="6 Communication channels permit untrusted/unreliable messages to be accepted or are vulnerable to session hijacking/replay attacks" />
      </node>
      <node concept="2H0S4X" id="4ZIixnyU4qh" role="2H0S5D">
        <property role="TrG5h" value="Accepting information from unreliable or untrusted source" />
        <node concept="3VMn$a" id="4bWuMoKP5oy" role="3GS99T" />
      </node>
      <node concept="2H0S4X" id="4ZIixnyU4qi" role="2H0S5D">
        <property role="TrG5h" value="Man in the middle attack/ session hijacking" />
        <node concept="3VMn$a" id="4ZIixnyU4qj" role="3GS99T" />
      </node>
      <node concept="2H0S4X" id="4ZIixnyU4qk" role="2H0S5D">
        <property role="TrG5h" value="Replay attack, for example an attack against a communication gateway allows the attacker to downgrade software of an ECU or firmware of the gateway" />
        <node concept="3VMn$a" id="4bWuMoKP5oz" role="3GS99T" />
      </node>
      <node concept="3GSqTS" id="4ZIixnyU4ql" role="2H0S5D">
        <property role="TrG5h" value="7 Information can be readily disclosed. For example through eavesdropping on communications or through allowing unauthorized access to sensitive files or folders" />
      </node>
      <node concept="2H0S4X" id="4ZIixnyU4qm" role="2H0S5D">
        <property role="TrG5h" value="Interception of information / interfering radiations / monitoring communications" />
        <node concept="3VMn$a" id="4bWuMoKP5o$" role="3GS99T" />
      </node>
      <node concept="2H0S4X" id="4ZIixnyU4qn" role="2H0S5D">
        <property role="TrG5h" value="Gaining unauthorised access to files or data" />
        <node concept="3VMn$a" id="4bWuMoKP5o_" role="3GS99T" />
      </node>
      <node concept="3GSqTS" id="4ZIixnyU4qo" role="2H0S5D">
        <property role="TrG5h" value="8 Denial of service attacks via communication channels to disrupt vehicle functions" />
      </node>
      <node concept="2H0S4X" id="4ZIixnyU4qp" role="2H0S5D">
        <property role="TrG5h" value="Sending a large number of garbage data to vehicle information system, so that it is unable to provide services in the normal manner" />
        <node concept="3VMn$a" id="4bWuMoKP5oA" role="3GS99T" />
      </node>
      <node concept="2H0S4X" id="4ZIixnyU4qq" role="2H0S5D">
        <property role="TrG5h" value="Black hole attack, in order to disrupt communication between vehicles the attacker is able to block messages between the vehicles" />
        <node concept="3VMn$a" id="4bWuMoKP5oB" role="3GS99T" />
      </node>
      <node concept="3GSqTS" id="4ZIixnyU4qr" role="2H0S5D">
        <property role="TrG5h" value="9 An unprivileged user is able to gain privileged access to vehicle systems" />
      </node>
      <node concept="2H0S4X" id="4ZIixnyU4qs" role="2H0S5D">
        <property role="TrG5h" value="An unprivileged user is able to gain privileged access, for example root access" />
        <node concept="3VMn$a" id="4bWuMoKP5oC" role="3GS99T" />
      </node>
      <node concept="3GSqTS" id="4ZIixnyU4qt" role="2H0S5D">
        <property role="TrG5h" value="10 Viruses embedded in communication media are able to infect vehicle systems" />
      </node>
      <node concept="2H0S4X" id="4ZIixnyU4qu" role="2H0S5D">
        <property role="TrG5h" value="Virus embedded in communication media infects vehicle systems" />
        <node concept="3VMn$a" id="4bWuMoKP5oD" role="3GS99T" />
      </node>
      <node concept="3GSqTS" id="4ZIixnyU4qv" role="2H0S5D">
        <property role="TrG5h" value="11 Messages received by the vehicle (for example X2V or diagnostic messages), or transmitted within it, contain malicious content" />
      </node>
      <node concept="2H0S4X" id="4ZIixnyU4qw" role="2H0S5D">
        <property role="TrG5h" value="Malicious internal (e.g. CAN) messages" />
        <node concept="3VMn$a" id="4bWuMoKP5oE" role="3GS99T" />
      </node>
      <node concept="2H0S4X" id="4ZIixnyU4qx" role="2H0S5D">
        <property role="TrG5h" value="Malicious V2X messages, e.g. infrastructure to vehicle or vehicle-vehicle messages (e.g. CAM, DENM)" />
        <node concept="3VMn$a" id="4bWuMoKP5oF" role="3GS99T" />
      </node>
      <node concept="2H0S4X" id="4ZIixnyU4qy" role="2H0S5D">
        <property role="TrG5h" value="Malicious diagnostic messages" />
        <node concept="3VMn$a" id="4bWuMoKP5oG" role="3GS99T" />
      </node>
      <node concept="2H0S4X" id="4ZIixnyU4qz" role="2H0S5D">
        <property role="TrG5h" value="Malicious proprietary messages (e.g. those normally sent from OEM or component/system/function supplier)" />
        <node concept="3VMn$a" id="4bWuMoKP5oH" role="3GS99T" />
      </node>
    </node>
    <node concept="2H0S5N" id="4ZIixnyU4q$" role="2H0S4$">
      <property role="TrG5h" value="Threats to vehicles regarding their update procedures" />
      <node concept="3GSqTS" id="4ZIixnyU4q_" role="2H0S5D">
        <property role="TrG5h" value="12 Misuse or compromise of update procedures" />
      </node>
      <node concept="2H0S4X" id="4ZIixnyU4qA" role="2H0S5D">
        <property role="TrG5h" value="Compromise of over the air software update procedures, This includes fabricating system update program or firmware" />
        <node concept="3VMn$a" id="4bWuMoKP5oI" role="3GS99T" />
      </node>
      <node concept="2H0S4X" id="4ZIixnyU4qB" role="2H0S5D">
        <property role="TrG5h" value="Compromise of local/physical software update procedures. This includes fabricating system update program or firmware" />
        <node concept="3VMn$a" id="4bWuMoKP5oJ" role="3GS99T" />
      </node>
      <node concept="2H0S4X" id="4ZIixnyU4qC" role="2H0S5D">
        <property role="TrG5h" value="The software is manipulated before the update process (and is therefore corrupted), although the update process is intact" />
        <node concept="3VMn$a" id="4bWuMoKP5oK" role="3GS99T" />
      </node>
      <node concept="2H0S4X" id="4ZIixnyU4qD" role="2H0S5D">
        <property role="TrG5h" value="Compromise of cryptographic keys of the software provider to allow invalid update" />
        <node concept="3VMn$a" id="4bWuMoKP5oL" role="3GS99T" />
      </node>
      <node concept="3GSqTS" id="4ZIixnyU4qE" role="2H0S5D">
        <property role="TrG5h" value="13 It is possible to deny legitimate updates" />
      </node>
      <node concept="2H0S4X" id="4ZIixnyU4qF" role="2H0S5D">
        <property role="TrG5h" value="Denial of Service attack against update server or network to prevent rollout of critical software updates and/or unlock of customer specific features" />
        <node concept="3VMn$a" id="4bWuMoKP5oM" role="3GS99T" />
      </node>
    </node>
    <node concept="2H0S5N" id="4ZIixnyU4qG" role="2H0S4$">
      <property role="TrG5h" value="Threats to vehicles regarding unintended human actions" />
      <node concept="3GSqTS" id="4ZIixnyU4qH" role="2H0S5D">
        <property role="TrG5h" value="14 Misconfiguration of equipment or systems by legitimate actor, e.g. owner or maintenance community" />
      </node>
      <node concept="2H0S4X" id="4ZIixnyU4qI" role="2H0S5D">
        <property role="TrG5h" value="Misconfiguration of equipment by maintenance community or owner during installation/repair/use causing unintended consequence" />
        <node concept="3VMn$a" id="4bWuMoKP5oN" role="3GS99T" />
      </node>
      <node concept="2H0S4X" id="4ZIixnyU4qJ" role="2H0S5D">
        <property role="TrG5h" value="Erroneous use or administration of devices and systems (incl. OTA updates)" />
        <node concept="3VMn$a" id="4bWuMoKP5oO" role="3GS99T" />
      </node>
      <node concept="3GSqTS" id="4ZIixnyU4qK" role="2H0S5D">
        <property role="TrG5h" value="15 Legitimate actors are able to take actions that would unwittingly facilitate a cyber-attack" />
      </node>
      <node concept="2H0S4X" id="4ZIixnyU4qL" role="2H0S5D">
        <property role="TrG5h" value="Innocent victim (e.g. owner, operator or maintenance engineer) being tricked into taking an action to unintentionally load malware or enable an attack" />
        <node concept="3VMn$a" id="4bWuMoKP5oP" role="3GS99T" />
      </node>
      <node concept="2H0S4X" id="4ZIixnyU4qM" role="2H0S5D">
        <property role="TrG5h" value="Defined security procedures are not followed" />
        <node concept="3VMn$a" id="4bWuMoKP5oQ" role="3GS99T" />
      </node>
    </node>
    <node concept="2H0S5N" id="4ZIixnyU4qN" role="2H0S4$">
      <property role="TrG5h" value="Threats to vehicles regarding their external connectivity and connections" />
      <node concept="3GSqTS" id="4ZIixnyU4qO" role="2H0S5D">
        <property role="TrG5h" value="16 Manipulation of the connectivity of vehicle functions enables a cyber-attack, this can include telematics; systems that permit remote operations; and systems using short range wireless communications" />
      </node>
      <node concept="2H0S4X" id="4ZIixnyU4qP" role="2H0S5D">
        <property role="TrG5h" value="Manipulation of functions designed to remotely operate systems, such as remote key, immobiliser, and charging pile" />
        <node concept="3VMn$a" id="4bWuMoKP5oR" role="3GS99T" />
      </node>
      <node concept="2H0S4X" id="4ZIixnyU4qQ" role="2H0S5D">
        <property role="TrG5h" value="Manipulation of vehicle telematics (e.g. manipulate temperature measurement of sensitive goods, remotely unlock cargo doors)" />
        <node concept="3VMn$a" id="4bWuMoKP5oS" role="3GS99T" />
      </node>
      <node concept="2H0S4X" id="4ZIixnyU4qR" role="2H0S5D">
        <property role="TrG5h" value="Interference with short range wireless systems or sensors" />
        <node concept="3VMn$a" id="4bWuMoKP5oT" role="3GS99T" />
      </node>
      <node concept="3GSqTS" id="4ZIixnyU4qS" role="2H0S5D">
        <property role="TrG5h" value="17 Hosted 3rd party software, e.g. entertainment applications, used as a means to attack vehicle systems" />
      </node>
      <node concept="2H0S4X" id="4ZIixnyU4qT" role="2H0S5D">
        <property role="TrG5h" value="Corrupted applications, or those with poor software security, used as a method to attack vehicle systems" />
        <node concept="3VMn$a" id="4bWuMoKP5oU" role="3GS99T" />
      </node>
      <node concept="3GSqTS" id="4ZIixnyU4qU" role="2H0S5D">
        <property role="TrG5h" value="18" />
      </node>
      <node concept="2H0S4X" id="4ZIixnyU4qV" role="2H0S5D">
        <property role="TrG5h" value="External interfaces such as USB or other ports used as a point of attack, for example through code injection" />
        <node concept="3VMn$a" id="4bWuMoKP5oV" role="3GS99T" />
      </node>
      <node concept="2H0S4X" id="4ZIixnyU4qW" role="2H0S5D">
        <property role="TrG5h" value="Media infected with a virus connected to a vehicle system" />
        <node concept="3VMn$a" id="4bWuMoKP5oW" role="3GS99T" />
      </node>
      <node concept="2H0S4X" id="4ZIixnyU4qX" role="2H0S5D">
        <property role="TrG5h" value="Diagnostic access (e.g. dongles in OBD port) used to facilitate an attack, e.g. manipulate vehicle parameters (directly or indirectly)" />
        <node concept="3VMn$a" id="4bWuMoKP5oX" role="3GS99T" />
      </node>
    </node>
    <node concept="2H0S5N" id="4ZIixnyU4qY" role="2H0S4$">
      <property role="TrG5h" value="Potential targets of, or motivations for, an attack" />
      <node concept="3GSqTS" id="4ZIixnyU4qZ" role="2H0S5D">
        <property role="TrG5h" value="19 Extraction of vehicle data/code" />
      </node>
      <node concept="2H0S4X" id="4ZIixnyU4r0" role="2H0S5D">
        <property role="TrG5h" value="Extraction of copyright or proprietary software from vehicle systems (product piracy)" />
        <node concept="3VMn$a" id="4bWuMoKP5oY" role="3GS99T" />
      </node>
      <node concept="2H0S4X" id="4ZIixnyU4r1" role="2H0S5D">
        <property role="TrG5h" value="Unauthorized access to the owner’s privacy information such as personal identity, payment account information, address book information, location information, vehicle’s electronic ID, etc." />
        <node concept="3VMn$a" id="4bWuMoKP5oZ" role="3GS99T" />
      </node>
      <node concept="2H0S4X" id="4ZIixnyU4r2" role="2H0S5D">
        <property role="TrG5h" value="Extraction of cryptographic keys" />
        <node concept="3VMn$a" id="4bWuMoKP5p0" role="3GS99T" />
      </node>
      <node concept="3GSqTS" id="4ZIixnyU4r3" role="2H0S5D">
        <property role="TrG5h" value="20 Manipulation of vehicle data/code" />
      </node>
      <node concept="2H0S4X" id="4ZIixnyU4r4" role="2H0S5D">
        <property role="TrG5h" value="Illegal/unauthorised changes to vehicle’s electronic ID" />
        <node concept="3VMn$a" id="4bWuMoKP5p1" role="3GS99T" />
      </node>
      <node concept="2H0S4X" id="4ZIixnyU4r5" role="2H0S5D">
        <property role="TrG5h" value="Identity fraud. For example if a user wants to display another identity when communicating with toll systems, manufacturer backend" />
        <node concept="3VMn$a" id="4bWuMoKP5p2" role="3GS99T" />
      </node>
      <node concept="2H0S4X" id="4ZIixnyU4r6" role="2H0S5D">
        <property role="TrG5h" value="Action to circumvent monitoring systems (e.g. hacking/ tampering/ blocking of messages such as ODR Tracker data, or number of runs)" />
        <node concept="3VMn$a" id="4bWuMoKP5p3" role="3GS99T" />
      </node>
      <node concept="2H0S4X" id="4ZIixnyU4r7" role="2H0S5D">
        <property role="TrG5h" value="Data manipulation to falsify vehicle’s driving data (e.g. mileage, driving speed, driving directions, etc.)" />
        <node concept="3VMn$a" id="4bWuMoKP5p4" role="3GS99T" />
      </node>
      <node concept="2H0S4X" id="4ZIixnyU4r8" role="2H0S5D">
        <property role="TrG5h" value="Unauthorised changes to system diagnostic data" />
        <node concept="3VMn$a" id="4bWuMoKP5p5" role="3GS99T" />
      </node>
      <node concept="3GSqTS" id="4ZIixnyU4r9" role="2H0S5D">
        <property role="TrG5h" value="21 Erasure of data/code" />
      </node>
      <node concept="2H0S4X" id="4ZIixnyU4ra" role="2H0S5D">
        <property role="TrG5h" value="Unauthorized deletion/manipulation of system event logs" />
        <node concept="3VMn$a" id="4bWuMoKP5p6" role="3GS99T" />
      </node>
      <node concept="3GSqTS" id="4ZIixnyU4rb" role="2H0S5D">
        <property role="TrG5h" value="22 Introduction of malware" />
      </node>
      <node concept="2H0S4X" id="4ZIixnyU4rc" role="2H0S5D">
        <property role="TrG5h" value="Introduce malicious software or malicious software activity" />
        <node concept="3VMn$a" id="4bWuMoKP5p7" role="3GS99T" />
      </node>
      <node concept="3GSqTS" id="4ZIixnyU4rd" role="2H0S5D">
        <property role="TrG5h" value="23 Introduction of new software or overwrite existing software" />
      </node>
      <node concept="2H0S4X" id="4ZIixnyU4re" role="2H0S5D">
        <property role="TrG5h" value="Fabrication of software of the vehicle control system or information system" />
        <node concept="3VMn$a" id="4bWuMoKP5p8" role="3GS99T" />
      </node>
      <node concept="3GSqTS" id="4ZIixnyU4rf" role="2H0S5D">
        <property role="TrG5h" value="24 Disruption of systems or operations" />
      </node>
      <node concept="2H0S4X" id="4ZIixnyU4rg" role="2H0S5D">
        <property role="TrG5h" value="Denial of service, for example this may be triggered on the internal network by flooding a CAN bus, or by provoking faults on an ECU via a high rate of messaging" />
        <node concept="3VMn$a" id="4bWuMoKP5p9" role="3GS99T" />
      </node>
      <node concept="3GSqTS" id="4ZIixnyU4rh" role="2H0S5D">
        <property role="TrG5h" value="25 Manipulation of vehicle parameters" />
      </node>
      <node concept="2H0S4X" id="4ZIixnyU4ri" role="2H0S5D">
        <property role="TrG5h" value="Unauthorized access of falsify the configuration parameters of vehicle’s key functions, such as brake data, airbag deployed threshold, etc." />
        <node concept="3VMn$a" id="4bWuMoKP5pa" role="3GS99T" />
      </node>
      <node concept="2H0S4X" id="4ZIixnyU4rj" role="2H0S5D">
        <property role="TrG5h" value="Unauthorized access of falsify the charging parameters, such as charging voltage, charging power, battery temperature, etc." />
        <node concept="3VMn$a" id="4bWuMoKP5pb" role="3GS99T" />
      </node>
    </node>
    <node concept="2H0S5N" id="4ZIixnyU4rk" role="2H0S4$">
      <property role="TrG5h" value="Potential vulnerabilities that could be exploited if not sufficiently protected or hardened" />
      <node concept="3GSqTS" id="4ZIixnyU4rl" role="2H0S5D">
        <property role="TrG5h" value="26 Cryptographic technologies can be compromised or are insufficiently applied" />
      </node>
      <node concept="2H0S4X" id="4ZIixnyU4rm" role="2H0S5D">
        <property role="TrG5h" value="Combination of short encryption keys and long period of validity enables attacker to break encryption" />
        <node concept="3VMn$a" id="4bWuMoKP5pc" role="3GS99T" />
      </node>
      <node concept="2H0S4X" id="4ZIixnyU4rn" role="2H0S5D">
        <property role="TrG5h" value="Insufficient use of cryptographic algorithms to protect sensitive systems" />
        <node concept="3VMn$a" id="4bWuMoKP5pd" role="3GS99T" />
      </node>
      <node concept="2H0S4X" id="4ZIixnyU4ro" role="2H0S5D">
        <property role="TrG5h" value="Using already or soon to be deprecated cryptographic algorithms" />
        <node concept="3VMn$a" id="4bWuMoKP5pe" role="3GS99T" />
      </node>
      <node concept="3GSqTS" id="4ZIixnyU4rp" role="2H0S5D">
        <property role="TrG5h" value="27 Parts or supplies could be compromised to permit vehicles to be attacked" />
      </node>
      <node concept="2H0S4X" id="4ZIixnyU4rq" role="2H0S5D">
        <property role="TrG5h" value="Hardware or software, engineered to enable an attack or fails to meet design criteria to stop an attack" />
        <node concept="3VMn$a" id="4bWuMoKP5pf" role="3GS99T" />
      </node>
      <node concept="3GSqTS" id="4ZIixnyU4rr" role="2H0S5D">
        <property role="TrG5h" value="28 Software or hardware development permits vulnerabilities" />
      </node>
      <node concept="2H0S4X" id="4ZIixnyU4rs" role="2H0S5D">
        <property role="TrG5h" value="Software bugs. The presence of software bugs can be a basis for potential exploitable vulnerabilities. This is particularly true if software has not been tested to verify that known bad code/bugs is not present and reduce the risk of unknown bad code/bugs being present." />
        <node concept="3VMn$a" id="4bWuMoKP5pg" role="3GS99T" />
      </node>
      <node concept="2H0S4X" id="4ZIixnyU4rt" role="2H0S5D">
        <property role="TrG5h" value="Using remainders from development (e.g. debug ports, JTAG ports, microprocessors, development certificates, developer passwords, …) can permit access to ECUs or permit attackers to gain higher privileges" />
        <node concept="3VMn$a" id="4bWuMoKP5ph" role="3GS99T" />
      </node>
      <node concept="3GSqTS" id="4ZIixnyU4ru" role="2H0S5D">
        <property role="TrG5h" value="29 Network design introduces vulnerabilities" />
      </node>
      <node concept="2H0S4X" id="4ZIixnyU4rv" role="2H0S5D">
        <property role="TrG5h" value="Superfluous internet ports left open, providing access to network systems" />
        <node concept="3VMn$a" id="4bWuMoKP5pi" role="3GS99T" />
      </node>
      <node concept="2H0S4X" id="4ZIixnyU4rw" role="2H0S5D">
        <property role="TrG5h" value="Circumvent network separation to gain control. Specific example is the use of unprotected gateways, or access points (such as truck-trailer gateways), to circumvent protections and gain access to other network segments to perform malicious acts, such as sending arbitrary CAN bus messages" />
        <node concept="3VMn$a" id="4bWuMoKP5pj" role="3GS99T" />
      </node>
      <node concept="3GSqTS" id="4ZIixnyU4rx" role="2H0S5D">
        <property role="TrG5h" value="30 Physical loss of data can occur" />
      </node>
      <node concept="2H0S4X" id="4ZIixnyU4ry" role="2H0S5D">
        <property role="TrG5h" value="Damage caused by a third party. Sensitive data may be lost or compromised due to physical damages in cases of traffic accident or theft" />
        <node concept="3VMn$a" id="4bWuMoKP5pk" role="3GS99T" />
      </node>
      <node concept="2H0S4X" id="4ZIixnyU4rz" role="2H0S5D">
        <property role="TrG5h" value="Loss from DRM (digital right management) conflicts. User data may be deleted due to DRM issues" />
        <node concept="3VMn$a" id="4bWuMoKP5pl" role="3GS99T" />
      </node>
      <node concept="2H0S4X" id="4ZIixnyU4r$" role="2H0S5D">
        <property role="TrG5h" value="The (integrity of) sensitive data may be lost due to IT components wear and tear, causing potential cascading issues (in case of key alteration, for example)" />
        <node concept="3VMn$a" id="4bWuMoKP5pm" role="3GS99T" />
      </node>
      <node concept="3GSqTS" id="4ZIixnyU4r_" role="2H0S5D">
        <property role="TrG5h" value="31 Unintended transfer of data can occur" />
      </node>
      <node concept="2H0S4X" id="4ZIixnyU4rA" role="2H0S5D">
        <property role="TrG5h" value="Information breach. Private or sensitive data may be leaked when the car changes user (e.g. is sold or is used as hire vehicle with new hirers)" />
        <node concept="3VMn$a" id="4bWuMoKP5pn" role="3GS99T" />
      </node>
      <node concept="3GSqTS" id="4ZIixnyU4rB" role="2H0S5D">
        <property role="TrG5h" value="32 Physical manipulation of systems can enable an attack" />
      </node>
      <node concept="2H0S4X" id="4ZIixnyU4rC" role="2H0S5D">
        <property role="TrG5h" value="Manipulation of OEM hardware, e.g. unauthorised hardware added to a vehicle to enable &quot;man-in-the-middle&quot; attack" />
        <node concept="3VMn$a" id="4bWuMoKP5po" role="3GS99T" />
      </node>
    </node>
    <node concept="3VMn$a" id="4ZIixnyU4rD" role="2JHqPs">
      <node concept="3VMn$0" id="4ZIixnyU4rE" role="3VMn$6">
        <node concept="3VMn$7" id="4ZIixnyU4rF" role="3VMn$3">
          <property role="3VMn$Y" value="List" />
        </node>
        <node concept="3VMn$7" id="4ZIixnyU4rG" role="3VMn$3">
          <property role="3VMn$Y" value="of" />
        </node>
        <node concept="3VMn$7" id="4ZIixnyU4rH" role="3VMn$3">
          <property role="3VMn$Y" value="examples" />
        </node>
        <node concept="3VMn$7" id="4ZIixnyU4rI" role="3VMn$3">
          <property role="3VMn$Y" value="of" />
        </node>
        <node concept="3VMn$7" id="4ZIixnyU4rJ" role="3VMn$3">
          <property role="3VMn$Y" value="vulnerability" />
        </node>
        <node concept="3VMn$7" id="4ZIixnyU4rK" role="3VMn$3">
          <property role="3VMn$Y" value="or" />
        </node>
        <node concept="3VMn$7" id="4ZIixnyU4rL" role="3VMn$3">
          <property role="3VMn$Y" value="attack" />
        </node>
        <node concept="3VMn$7" id="4ZIixnyU4rM" role="3VMn$3">
          <property role="3VMn$Y" value="method" />
        </node>
        <node concept="3VMn$7" id="4ZIixnyU4rN" role="3VMn$3">
          <property role="3VMn$Y" value="to" />
        </node>
        <node concept="3VMn$7" id="4ZIixnyU4rO" role="3VMn$3">
          <property role="3VMn$Y" value="threats." />
        </node>
      </node>
    </node>
  </node>
  <node concept="2Q15JU" id="4ZIixnyU4rP">
    <property role="3GE5qa" value="Assistants" />
    <node concept="CEhHY" id="4ZIixnyU4rQ" role="kmFqQ" />
    <node concept="CENT2" id="4ZIixnyU4rR" role="2Q$E0J" />
  </node>
  <node concept="3eC5pO" id="4ZIixnyU4ng">
    <property role="TrG5h" value="Project Info: NameChange testnamechangehere" />
    <property role="38JYzO" value="true" />
    <node concept="$sJSu" id="4ZIixnyU4nh" role="$s4ey">
      <property role="TrG5h" value="Project Data" />
      <node concept="$sJSp" id="4ZIixnyU4ni" role="$tzTT">
        <property role="TrG5h" value="Target Of Evaluation" />
        <node concept="38D_9Z" id="4ZIixnyU4nj" role="X3RNv">
          <node concept="3VMn$a" id="4ZIixnyU4nk" role="38D_my" />
        </node>
      </node>
      <node concept="$sJSp" id="4ZIixnyU4nn" role="$tzTT">
        <property role="TrG5h" value="Project" />
        <node concept="38D_9Z" id="4ZIixnyU4no" role="X3RNv">
          <node concept="3VMn$a" id="4ZIixnyU4np" role="38D_my" />
        </node>
      </node>
      <node concept="$sJSp" id="4ZIixnyU4ns" role="$tzTT">
        <property role="TrG5h" value="Contact (Department)" />
        <node concept="38D_9Z" id="4ZIixnyU4nt" role="X3RNv">
          <node concept="3VMn$a" id="4ZIixnyU4nu" role="38D_my" />
        </node>
      </node>
      <node concept="$sJSp" id="4ZIixnyU4nx" role="$tzTT">
        <property role="TrG5h" value="Contact (Security Expert)" />
        <node concept="38D_9Z" id="4ZIixnyU4ny" role="X3RNv">
          <node concept="3VMn$a" id="4ZIixnyU4nz" role="38D_my" />
        </node>
      </node>
      <node concept="$sJSp" id="4ZIixnyU4nA" role="$tzTT">
        <property role="TrG5h" value="Editor" />
        <node concept="38D_9Z" id="4ZIixnyU4nB" role="X3RNv">
          <node concept="3VMn$a" id="4ZIixnyU4nC" role="38D_my" />
        </node>
      </node>
      <node concept="$sJSp" id="4ZIixnyU4nF" role="$tzTT">
        <property role="TrG5h" value="Deadline" />
        <node concept="38D_9Z" id="4ZIixnyU4nG" role="X3RNv">
          <node concept="3VMn$a" id="4ZIixnyU4nH" role="38D_my" />
        </node>
      </node>
    </node>
    <node concept="$sJSh" id="4ZIixnyU4nK" role="$s4ey" />
    <node concept="$sJSu" id="4ZIixnyU4nL" role="$s4ey">
      <property role="TrG5h" value="Status" />
      <node concept="$sJSp" id="4ZIixnyU4nM" role="$tzTT">
        <property role="TrG5h" value="Risk Analyis Status" />
        <node concept="38D_9Z" id="4ZIixnyU4nN" role="X3RNv">
          <node concept="3VMn$a" id="4ZIixnyU4nO" role="38D_my" />
        </node>
      </node>
    </node>
    <node concept="$sJSh" id="4ZIixnyU4nR" role="$s4ey" />
    <node concept="39leHu" id="4ZIixnyU4nS" role="$s4ey">
      <property role="TrG5h" value="Version History" />
      <node concept="2mR0d" id="4ZIixnyU4nT" role="2mR6f">
        <node concept="2mR0e" id="4ZIixnyU4nU" role="2mR6i">
          <node concept="2opHn" id="4_Xnd$A6$j6" role="2hY46" />
        </node>
        <node concept="2mR0e" id="4ZIixnyU4nW" role="2mR6i">
          <node concept="2opHn" id="4_Xnd$A6$j8" role="2hY46" />
        </node>
        <node concept="2mR0e" id="4ZIixnyU4nY" role="2mR6i">
          <node concept="2opHn" id="4_Xnd$A6$ja" role="2hY46" />
        </node>
        <node concept="2mR0e" id="4ZIixnyU4o0" role="2mR6i">
          <node concept="2opHn" id="4_Xnd$A6$jc" role="2hY46" />
        </node>
      </node>
      <node concept="2ozQQ" id="4ZIixnyU4o2" role="2hO6J">
        <property role="TrG5h" value="Revision" />
      </node>
      <node concept="2ozQQ" id="4ZIixnyU4o3" role="2hO6J">
        <property role="TrG5h" value="Date" />
      </node>
      <node concept="2ozQQ" id="4ZIixnyU4o4" role="2hO6J">
        <property role="TrG5h" value="Authors" />
      </node>
      <node concept="2ozQQ" id="4ZIixnyU4o5" role="2hO6J">
        <property role="TrG5h" value="Description" />
      </node>
    </node>
    <node concept="$sJSh" id="4ZIixnyU4o6" role="$s4ey" />
    <node concept="39leHu" id="4ZIixnyU4o7" role="$s4ey">
      <property role="TrG5h" value="Documents" />
      <node concept="2mR0d" id="4ZIixnyU4o8" role="2mR6f">
        <node concept="2mR0e" id="4ZIixnyU4o9" role="2mR6i">
          <node concept="2opHn" id="4_Xnd$A6$je" role="2hY46" />
        </node>
        <node concept="2mR0e" id="4ZIixnyU4ob" role="2mR6i">
          <node concept="2opHn" id="4_Xnd$A6$jg" role="2hY46" />
        </node>
        <node concept="2mR0e" id="4ZIixnyU4od" role="2mR6i">
          <node concept="2opHn" id="4_Xnd$A6$ji" role="2hY46" />
        </node>
        <node concept="2mR0e" id="4ZIixnyU4of" role="2mR6i">
          <node concept="2opHn" id="4_Xnd$A6$jk" role="2hY46" />
        </node>
        <node concept="2mR0e" id="4ZIixnyU4oh" role="2mR6i">
          <node concept="2opHn" id="4_Xnd$A6$jm" role="2hY46" />
        </node>
      </node>
      <node concept="2ozQQ" id="4ZIixnyU4oj" role="2hO6J">
        <property role="TrG5h" value="Content" />
      </node>
      <node concept="2ozQQ" id="4ZIixnyU4ok" role="2hO6J">
        <property role="TrG5h" value="Date" />
      </node>
      <node concept="2ozQQ" id="4ZIixnyU4ol" role="2hO6J">
        <property role="TrG5h" value="Version" />
      </node>
      <node concept="2ozQQ" id="4ZIixnyU4om" role="2hO6J">
        <property role="TrG5h" value="Filename" />
      </node>
      <node concept="2ozQQ" id="4ZIixnyU4on" role="2hO6J">
        <property role="TrG5h" value="Origin" />
      </node>
    </node>
    <node concept="$sJSh" id="4ZIixnyU4oo" role="$s4ey" />
  </node>
</model>

